{
  "formatVersion": 1,
  "database": {
    "version": 1,
    "identityHash": "7836c5bf01e449d29709eff27b347ada",
    "entities": [
      {
        "tableName": "weather_forecast_data",
        "createSql": "CREATE TABLE IF NOT EXISTS `${TABLE_NAME}` (`cityId` TEXT NOT NULL, `timezone` TEXT, PRIMARY KEY(`cityId`))",
        "fields": [
          {
            "fieldPath": "cityId",
            "columnName": "cityId",
            "affinity": "TEXT",
            "notNull": true
          },
          {
            "fieldPath": "timezone",
            "columnName": "timezone",
            "affinity": "TEXT",
            "notNull": false
          }
        ],
        "primaryKey": {
          "columnNames": [
            "cityId"
          ],
          "autoGenerate": false
        },
        "indices": [],
        "foreignKeys": []
      }
    ],
    "setupQueries": [
      "CREATE TABLE IF NOT EXISTS room_master_table (id INTEGER PRIMARY KEY,identity_hash TEXT)",
      "INSERT OR REPLACE INTO room_master_table (id,identity_hash) VALUES(42, \"7836c5bf01e449d29709eff27b347ada\")"
    ]
  }
}